info face="PC Senior" size=18 bold=0 italic=0 charset="" unicode=1 stretchH=100 smooth=0 aa=1 padding=0,0,0,0 spacing=1,1 outline=0
common lineHeight=19 base=14 scaleW=256 scaleH=256 pages=1 packed=0 alphaChnl=0 redChnl=4 greenChnl=4 blueChnl=4
page id=0 file="pcsenior18_0.png"
chars count=199
char id=0    x=253   y=0     width=0     height=1     xoffset=0     yoffset=18    xadvance=18    page=0  chnl=15
char id=12   x=254   y=4     width=0     height=1     xoffset=0     yoffset=18    xadvance=18    page=0  chnl=15
char id=13   x=255   y=0     width=0     height=1     xoffset=0     yoffset=18    xadvance=18    page=0  chnl=15
char id=32   x=253   y=0     width=0     height=1     xoffset=0     yoffset=18    xadvance=18    page=0  chnl=15
char id=33   x=0     y=104   width=9     height=16    xoffset=2     yoffset=0     xadvance=18    page=0  chnl=15
char id=34   x=0     y=147   width=11    height=7     xoffset=2     yoffset=0     xadvance=18    page=0  chnl=15
char id=35   x=204   y=36    width=16    height=16    xoffset=0     yoffset=0     xadvance=18    page=0  chnl=15
char id=36   x=15    y=70    width=14    height=16    xoffset=0     yoffset=0     xadvance=18    page=0  chnl=15
char id=37   x=113   y=104   width=16    height=14    xoffset=0     yoffset=2     xadvance=18    page=0  chnl=15
char id=38   x=168   y=53    width=15    height=16    xoffset=0     yoffset=0     xadvance=18    page=0  chnl=15
char id=39   x=12    y=147   width=7     height=7     xoffset=0     yoffset=0     xadvance=18    page=0  chnl=15
char id=40   x=10    y=104   width=9     height=16    xoffset=2     yoffset=0     xadvance=18    page=0  chnl=15
char id=41   x=20    y=104   width=9     height=16    xoffset=2     yoffset=0     xadvance=18    page=0  chnl=15
char id=42   x=135   y=119   width=18    height=11    xoffset=0     yoffset=3     xadvance=18    page=0  chnl=15
char id=43   x=98    y=135   width=14    height=11    xoffset=0     yoffset=3     xadvance=18    page=0  chnl=15
char id=44   x=246   y=130   width=7     height=7     xoffset=2     yoffset=11    xadvance=18    page=0  chnl=15
char id=45   x=76    y=147   width=14    height=2     xoffset=0     yoffset=7     xadvance=18    page=0  chnl=15
char id=46   x=34    y=147   width=5     height=5     xoffset=4     yoffset=11    xadvance=18    page=0  chnl=15
char id=47   x=106   y=19    width=16    height=16    xoffset=0     yoffset=0     xadvance=18    page=0  chnl=15
char id=48   x=123   y=19    width=16    height=16    xoffset=0     yoffset=0     xadvance=18    page=0  chnl=15
char id=49   x=165   y=70    width=14    height=16    xoffset=0     yoffset=0     xadvance=18    page=0  chnl=15
char id=50   x=180   y=70    width=14    height=16    xoffset=0     yoffset=0     xadvance=18    page=0  chnl=15
char id=51   x=195   y=70    width=14    height=16    xoffset=0     yoffset=0     xadvance=18    page=0  chnl=15
char id=52   x=191   y=19    width=16    height=16    xoffset=0     yoffset=0     xadvance=18    page=0  chnl=15
char id=53   x=210   y=70    width=14    height=16    xoffset=0     yoffset=0     xadvance=18    page=0  chnl=15
char id=54   x=225   y=70    width=14    height=16    xoffset=0     yoffset=0     xadvance=18    page=0  chnl=15
char id=55   x=240   y=69    width=14    height=16    xoffset=0     yoffset=0     xadvance=18    page=0  chnl=15
char id=56   x=0     y=87    width=14    height=16    xoffset=0     yoffset=0     xadvance=18    page=0  chnl=15
char id=57   x=15    y=87    width=14    height=16    xoffset=0     yoffset=0     xadvance=18    page=0  chnl=15
char id=58   x=147   y=104   width=5     height=14    xoffset=4     yoffset=2     xadvance=18    page=0  chnl=15
char id=59   x=70    y=104   width=7     height=16    xoffset=2     yoffset=2     xadvance=18    page=0  chnl=15
char id=60   x=244   y=51    width=11    height=16    xoffset=0     yoffset=0     xadvance=18    page=0  chnl=15
char id=61   x=204   y=130   width=14    height=9     xoffset=0     yoffset=5     xadvance=18    page=0  chnl=15
char id=62   x=207   y=87    width=11    height=16    xoffset=2     yoffset=0     xadvance=18    page=0  chnl=15
char id=63   x=105   y=87    width=14    height=16    xoffset=0     yoffset=0     xadvance=18    page=0  chnl=15
char id=64   x=85    y=36    width=16    height=16    xoffset=0     yoffset=0     xadvance=18    page=0  chnl=15
char id=65   x=120   y=87    width=14    height=16    xoffset=0     yoffset=0     xadvance=18    page=0  chnl=15
char id=66   x=119   y=36    width=16    height=16    xoffset=0     yoffset=0     xadvance=18    page=0  chnl=15
char id=67   x=136   y=36    width=16    height=16    xoffset=0     yoffset=0     xadvance=18    page=0  chnl=15
char id=68   x=153   y=36    width=16    height=16    xoffset=0     yoffset=0     xadvance=18    page=0  chnl=15
char id=69   x=152   y=53    width=15    height=16    xoffset=0     yoffset=0     xadvance=18    page=0  chnl=15
char id=70   x=170   y=36    width=16    height=16    xoffset=0     yoffset=0     xadvance=18    page=0  chnl=15
char id=71   x=187   y=36    width=16    height=16    xoffset=0     yoffset=0     xadvance=18    page=0  chnl=15
char id=72   x=135   y=87    width=14    height=16    xoffset=0     yoffset=0     xadvance=18    page=0  chnl=15
char id=73   x=40    y=104   width=9     height=16    xoffset=2     yoffset=0     xadvance=18    page=0  chnl=15
char id=74   x=238   y=34    width=16    height=16    xoffset=0     yoffset=0     xadvance=18    page=0  chnl=15
char id=75   x=0     y=53    width=16    height=16    xoffset=0     yoffset=0     xadvance=18    page=0  chnl=15
char id=76   x=17    y=53    width=16    height=16    xoffset=0     yoffset=0     xadvance=18    page=0  chnl=15
char id=77   x=51    y=36    width=16    height=16    xoffset=0     yoffset=0     xadvance=18    page=0  chnl=15
char id=78   x=51    y=53    width=16    height=16    xoffset=0     yoffset=0     xadvance=18    page=0  chnl=15
char id=79   x=68    y=53    width=16    height=16    xoffset=0     yoffset=0     xadvance=18    page=0  chnl=15
char id=80   x=85    y=53    width=16    height=16    xoffset=0     yoffset=0     xadvance=18    page=0  chnl=15
char id=81   x=180   y=87    width=14    height=16    xoffset=0     yoffset=0     xadvance=18    page=0  chnl=15
char id=82   x=119   y=53    width=16    height=16    xoffset=0     yoffset=0     xadvance=18    page=0  chnl=15
char id=83   x=184   y=53    width=14    height=16    xoffset=0     yoffset=0     xadvance=18    page=0  chnl=15
char id=84   x=242   y=17    width=13    height=16    xoffset=0     yoffset=0     xadvance=18    page=0  chnl=15
char id=85   x=214   y=53    width=14    height=16    xoffset=0     yoffset=0     xadvance=18    page=0  chnl=15
char id=86   x=229   y=52    width=14    height=16    xoffset=0     yoffset=0     xadvance=18    page=0  chnl=15
char id=87   x=102   y=36    width=16    height=16    xoffset=0     yoffset=0     xadvance=18    page=0  chnl=15
char id=88   x=221   y=35    width=16    height=16    xoffset=0     yoffset=0     xadvance=18    page=0  chnl=15
char id=89   x=0     y=70    width=14    height=16    xoffset=0     yoffset=0     xadvance=18    page=0  chnl=15
char id=90   x=38    y=19    width=16    height=16    xoffset=0     yoffset=0     xadvance=18    page=0  chnl=15
char id=91   x=60    y=104   width=9     height=16    xoffset=2     yoffset=0     xadvance=18    page=0  chnl=15
char id=92   x=55    y=19    width=16    height=16    xoffset=0     yoffset=0     xadvance=18    page=0  chnl=15
char id=93   x=242   y=86    width=10    height=16    xoffset=2     yoffset=0     xadvance=18    page=0  chnl=15
char id=94   x=187   y=130   width=16    height=9     xoffset=0     yoffset=0     xadvance=18    page=0  chnl=15
char id=95   x=57    y=147   width=18    height=2     xoffset=0     yoffset=16    xadvance=18    page=0  chnl=15
char id=96   x=20    y=147   width=7     height=7     xoffset=4     yoffset=0     xadvance=18    page=0  chnl=15
char id=97   x=51    y=135   width=16    height=11    xoffset=0     yoffset=5     xadvance=18    page=0  chnl=15
char id=98   x=140   y=19    width=16    height=16    xoffset=0     yoffset=0     xadvance=18    page=0  chnl=15
char id=99   x=158   y=130   width=14    height=11    xoffset=0     yoffset=5     xadvance=18    page=0  chnl=15
char id=100  x=174   y=19    width=16    height=16    xoffset=0     yoffset=0     xadvance=18    page=0  chnl=15
char id=101  x=113   y=134   width=14    height=11    xoffset=0     yoffset=5     xadvance=18    page=0  chnl=15
char id=102  x=75    y=70    width=14    height=16    xoffset=0     yoffset=0     xadvance=18    page=0  chnl=15
char id=103  x=238   y=104   width=16    height=13    xoffset=0     yoffset=5     xadvance=18    page=0  chnl=15
char id=104  x=157   y=19    width=16    height=16    xoffset=0     yoffset=0     xadvance=18    page=0  chnl=15
char id=105  x=30    y=104   width=9     height=16    xoffset=2     yoffset=0     xadvance=18    page=0  chnl=15
char id=106  x=165   y=0     width=14    height=18    xoffset=0     yoffset=0     xadvance=18    page=0  chnl=15
char id=107  x=17    y=36    width=16    height=16    xoffset=0     yoffset=0     xadvance=18    page=0  chnl=15
char id=108  x=50    y=104   width=9     height=16    xoffset=2     yoffset=0     xadvance=18    page=0  chnl=15
char id=109  x=192   y=118   width=16    height=11    xoffset=0     yoffset=5     xadvance=18    page=0  chnl=15
char id=110  x=83    y=135   width=14    height=11    xoffset=0     yoffset=5     xadvance=18    page=0  chnl=15
char id=111  x=128   y=131   width=14    height=11    xoffset=0     yoffset=5     xadvance=18    page=0  chnl=15
char id=112  x=204   y=104   width=16    height=13    xoffset=0     yoffset=5     xadvance=18    page=0  chnl=15
char id=113  x=221   y=104   width=16    height=13    xoffset=0     yoffset=5     xadvance=18    page=0  chnl=15
char id=114  x=226   y=118   width=16    height=11    xoffset=0     yoffset=5     xadvance=18    page=0  chnl=15
char id=115  x=68    y=135   width=14    height=11    xoffset=0     yoffset=5     xadvance=18    page=0  chnl=15
char id=116  x=219   y=87    width=11    height=16    xoffset=2     yoffset=0     xadvance=18    page=0  chnl=15
char id=117  x=209   y=118   width=16    height=11    xoffset=0     yoffset=5     xadvance=18    page=0  chnl=15
char id=118  x=143   y=131   width=14    height=11    xoffset=0     yoffset=5     xadvance=18    page=0  chnl=15
char id=119  x=17    y=135   width=16    height=11    xoffset=0     yoffset=5     xadvance=18    page=0  chnl=15
char id=120  x=0     y=135   width=16    height=11    xoffset=0     yoffset=5     xadvance=18    page=0  chnl=15
char id=121  x=45    y=121   width=14    height=13    xoffset=0     yoffset=5     xadvance=18    page=0  chnl=15
char id=122  x=173   y=130   width=13    height=11    xoffset=0     yoffset=5     xadvance=18    page=0  chnl=15
char id=123  x=90    y=70    width=14    height=16    xoffset=0     yoffset=0     xadvance=18    page=0  chnl=15
char id=124  x=78    y=104   width=5     height=16    xoffset=7     yoffset=0     xadvance=18    page=0  chnl=15
char id=125  x=105   y=70    width=14    height=16    xoffset=0     yoffset=0     xadvance=18    page=0  chnl=15
char id=126  x=40    y=147   width=16    height=4     xoffset=0     yoffset=1     xadvance=18    page=0  chnl=15
char id=127  x=130   y=104   width=16    height=14    xoffset=0     yoffset=2     xadvance=18    page=0  chnl=15
char id=160  x=253   y=12    width=0     height=1     xoffset=0     yoffset=18    xadvance=18    page=0  chnl=15
char id=161  x=84    y=104   width=5     height=16    xoffset=7     yoffset=0     xadvance=18    page=0  chnl=15
char id=162  x=133   y=0     width=16    height=18    xoffset=0     yoffset=0     xadvance=18    page=0  chnl=15
char id=163  x=72    y=19    width=16    height=16    xoffset=0     yoffset=0     xadvance=18    page=0  chnl=15
char id=164  x=253   y=10    width=0     height=1     xoffset=0     yoffset=18    xadvance=18    page=0  chnl=15
char id=165  x=150   y=0     width=14    height=18    xoffset=0     yoffset=0     xadvance=18    page=0  chnl=15
char id=166  x=90    y=104   width=5     height=16    xoffset=7     yoffset=0     xadvance=18    page=0  chnl=15
char id=167  x=95    y=0     width=18    height=18    xoffset=0     yoffset=0     xadvance=18    page=0  chnl=15
char id=168  x=253   y=6     width=0     height=1     xoffset=0     yoffset=18    xadvance=18    page=0  chnl=15
char id=169  x=76    y=0     width=18    height=18    xoffset=0     yoffset=0     xadvance=18    page=0  chnl=15
char id=170  x=90    y=121   width=13    height=13    xoffset=2     yoffset=1     xadvance=18    page=0  chnl=15
char id=171  x=154   y=118   width=18    height=11    xoffset=0     yoffset=3     xadvance=18    page=0  chnl=15
char id=172  x=231   y=130   width=14    height=7     xoffset=0     yoffset=7     xadvance=18    page=0  chnl=15
char id=173  x=91    y=147   width=14    height=2     xoffset=0     yoffset=7     xadvance=18    page=0  chnl=15
char id=174  x=38    y=0     width=18    height=18    xoffset=0     yoffset=0     xadvance=18    page=0  chnl=15
char id=175  x=253   y=0     width=0     height=1     xoffset=0     yoffset=18    xadvance=18    page=0  chnl=15
char id=176  x=219   y=130   width=11    height=9     xoffset=2     yoffset=0     xadvance=18    page=0  chnl=15
char id=177  x=135   y=70    width=14    height=16    xoffset=0     yoffset=0     xadvance=18    page=0  chnl=15
char id=178  x=243   y=118   width=9     height=11    xoffset=2     yoffset=1     xadvance=18    page=0  chnl=15
char id=179  x=253   y=0     width=0     height=1     xoffset=0     yoffset=18    xadvance=18    page=0  chnl=15
char id=180  x=252   y=2     width=0     height=1     xoffset=0     yoffset=18    xadvance=18    page=0  chnl=15
char id=181  x=96    y=104   width=16    height=15    xoffset=0     yoffset=3     xadvance=18    page=0  chnl=15
char id=182  x=214   y=0     width=18    height=16    xoffset=0     yoffset=0     xadvance=18    page=0  chnl=15
char id=183  x=28    y=147   width=5     height=5     xoffset=7     yoffset=7     xadvance=18    page=0  chnl=15
char id=184  x=252   y=4     width=0     height=1     xoffset=0     yoffset=18    xadvance=18    page=0  chnl=15
char id=185  x=252   y=6     width=0     height=1     xoffset=0     yoffset=18    xadvance=18    page=0  chnl=15
char id=186  x=104   y=120   width=11    height=13    xoffset=2     yoffset=1     xadvance=18    page=0  chnl=15
char id=187  x=173   y=118   width=18    height=11    xoffset=0     yoffset=3     xadvance=18    page=0  chnl=15
char id=188  x=19    y=0     width=18    height=18    xoffset=0     yoffset=0     xadvance=18    page=0  chnl=15
char id=189  x=0     y=0     width=18    height=18    xoffset=0     yoffset=0     xadvance=18    page=0  chnl=15
char id=190  x=252   y=8     width=0     height=1     xoffset=0     yoffset=18    xadvance=18    page=0  chnl=15
char id=191  x=150   y=70    width=14    height=16    xoffset=0     yoffset=0     xadvance=18    page=0  chnl=15
char id=192  x=252   y=12    width=0     height=1     xoffset=0     yoffset=18    xadvance=18    page=0  chnl=15
char id=193  x=252   y=14    width=0     height=1     xoffset=0     yoffset=18    xadvance=18    page=0  chnl=15
char id=194  x=253   y=2     width=0     height=1     xoffset=0     yoffset=18    xadvance=18    page=0  chnl=15
char id=195  x=253   y=4     width=0     height=1     xoffset=0     yoffset=18    xadvance=18    page=0  chnl=15
char id=196  x=102   y=53    width=16    height=16    xoffset=0     yoffset=0     xadvance=18    page=0  chnl=15
char id=197  x=30    y=87    width=14    height=16    xoffset=0     yoffset=0     xadvance=18    page=0  chnl=15
char id=198  x=34    y=53    width=16    height=16    xoffset=0     yoffset=0     xadvance=18    page=0  chnl=15
char id=199  x=180   y=0     width=14    height=18    xoffset=0     yoffset=0     xadvance=18    page=0  chnl=15
char id=200  x=253   y=8     width=0     height=1     xoffset=0     yoffset=18    xadvance=18    page=0  chnl=15
char id=201  x=45    y=87    width=14    height=16    xoffset=0     yoffset=0     xadvance=18    page=0  chnl=15
char id=202  x=253   y=14    width=0     height=1     xoffset=0     yoffset=18    xadvance=18    page=0  chnl=15
char id=203  x=254   y=2     width=0     height=1     xoffset=0     yoffset=18    xadvance=18    page=0  chnl=15
char id=204  x=253   y=0     width=0     height=1     xoffset=0     yoffset=18    xadvance=18    page=0  chnl=15
char id=205  x=254   y=6     width=0     height=1     xoffset=0     yoffset=18    xadvance=18    page=0  chnl=15
char id=206  x=254   y=10    width=0     height=1     xoffset=0     yoffset=18    xadvance=18    page=0  chnl=15
char id=207  x=254   y=12    width=0     height=1     xoffset=0     yoffset=18    xadvance=18    page=0  chnl=15
char id=208  x=254   y=14    width=0     height=1     xoffset=0     yoffset=18    xadvance=18    page=0  chnl=15
char id=209  x=60    y=87    width=14    height=16    xoffset=0     yoffset=0     xadvance=18    page=0  chnl=15
char id=210  x=254   y=0     width=0     height=1     xoffset=0     yoffset=18    xadvance=18    page=0  chnl=15
char id=211  x=254   y=0     width=0     height=1     xoffset=0     yoffset=18    xadvance=18    page=0  chnl=15
char id=212  x=254   y=0     width=0     height=1     xoffset=0     yoffset=18    xadvance=18    page=0  chnl=15
char id=213  x=255   y=0     width=0     height=1     xoffset=0     yoffset=18    xadvance=18    page=0  chnl=15
char id=214  x=19    y=19    width=18    height=16    xoffset=0     yoffset=0     xadvance=18    page=0  chnl=15
char id=215  x=34    y=135   width=16    height=11    xoffset=0     yoffset=3     xadvance=18    page=0  chnl=15
char id=216  x=254   y=0     width=0     height=1     xoffset=0     yoffset=18    xadvance=18    page=0  chnl=15
char id=217  x=255   y=0     width=0     height=1     xoffset=0     yoffset=18    xadvance=18    page=0  chnl=15
char id=218  x=253   y=0     width=0     height=1     xoffset=0     yoffset=18    xadvance=18    page=0  chnl=15
char id=219  x=252   y=0     width=0     height=1     xoffset=0     yoffset=18    xadvance=18    page=0  chnl=15
char id=220  x=75    y=87    width=14    height=16    xoffset=0     yoffset=0     xadvance=18    page=0  chnl=15
char id=221  x=254   y=0     width=0     height=1     xoffset=0     yoffset=18    xadvance=18    page=0  chnl=15
char id=222  x=255   y=0     width=0     height=1     xoffset=0     yoffset=18    xadvance=18    page=0  chnl=15
char id=223  x=90    y=87    width=14    height=16    xoffset=0     yoffset=2     xadvance=18    page=0  chnl=15
char id=224  x=68    y=36    width=16    height=16    xoffset=0     yoffset=0     xadvance=18    page=0  chnl=15
char id=225  x=225   y=17    width=16    height=16    xoffset=0     yoffset=0     xadvance=18    page=0  chnl=15
char id=226  x=0     y=19    width=18    height=16    xoffset=0     yoffset=0     xadvance=18    page=0  chnl=15
char id=227  x=252   y=10    width=0     height=1     xoffset=0     yoffset=18    xadvance=18    page=0  chnl=15
char id=228  x=34    y=36    width=16    height=16    xoffset=0     yoffset=0     xadvance=18    page=0  chnl=15
char id=229  x=0     y=36    width=16    height=16    xoffset=0     yoffset=0     xadvance=18    page=0  chnl=15
char id=230  x=116   y=119   width=18    height=11    xoffset=0     yoffset=5     xadvance=18    page=0  chnl=15
char id=231  x=30    y=121   width=14    height=13    xoffset=0     yoffset=5     xadvance=18    page=0  chnl=15
char id=232  x=150   y=87    width=14    height=16    xoffset=0     yoffset=0     xadvance=18    page=0  chnl=15
char id=233  x=165   y=87    width=14    height=16    xoffset=0     yoffset=0     xadvance=18    page=0  chnl=15
char id=234  x=233   y=0     width=18    height=16    xoffset=0     yoffset=0     xadvance=18    page=0  chnl=15
char id=235  x=120   y=70    width=14    height=16    xoffset=0     yoffset=0     xadvance=18    page=0  chnl=15
char id=236  x=195   y=87    width=11    height=16    xoffset=0     yoffset=0     xadvance=18    page=0  chnl=15
char id=237  x=231   y=87    width=10    height=16    xoffset=2     yoffset=0     xadvance=18    page=0  chnl=15
char id=238  x=208   y=18    width=16    height=16    xoffset=0     yoffset=0     xadvance=18    page=0  chnl=15
char id=239  x=199   y=53    width=14    height=16    xoffset=0     yoffset=0     xadvance=18    page=0  chnl=15
char id=240  x=254   y=8     width=0     height=1     xoffset=0     yoffset=18    xadvance=18    page=0  chnl=15
char id=241  x=60    y=121   width=14    height=13    xoffset=0     yoffset=3     xadvance=18    page=0  chnl=15
char id=242  x=15    y=121   width=14    height=13    xoffset=0     yoffset=3     xadvance=18    page=0  chnl=15
char id=243  x=75    y=121   width=14    height=13    xoffset=0     yoffset=3     xadvance=18    page=0  chnl=15
char id=244  x=30    y=70    width=14    height=16    xoffset=0     yoffset=0     xadvance=18    page=0  chnl=15
char id=245  x=255   y=0     width=0     height=1     xoffset=0     yoffset=18    xadvance=18    page=0  chnl=15
char id=246  x=0     y=121   width=14    height=13    xoffset=0     yoffset=3     xadvance=18    page=0  chnl=15
char id=247  x=45    y=70    width=14    height=16    xoffset=0     yoffset=0     xadvance=18    page=0  chnl=15
char id=248  x=255   y=0     width=0     height=1     xoffset=0     yoffset=18    xadvance=18    page=0  chnl=15
char id=249  x=187   y=104   width=16    height=13    xoffset=0     yoffset=3     xadvance=18    page=0  chnl=15
char id=250  x=170   y=104   width=16    height=13    xoffset=0     yoffset=3     xadvance=18    page=0  chnl=15
char id=251  x=136   y=53    width=15    height=16    xoffset=0     yoffset=0     xadvance=18    page=0  chnl=15
char id=252  x=153   y=104   width=16    height=13    xoffset=0     yoffset=3     xadvance=18    page=0  chnl=15
char id=253  x=254   y=0     width=0     height=1     xoffset=0     yoffset=18    xadvance=18    page=0  chnl=15
char id=254  x=255   y=0     width=0     height=1     xoffset=0     yoffset=18    xadvance=18    page=0  chnl=15
char id=255  x=60    y=70    width=14    height=16    xoffset=0     yoffset=2     xadvance=18    page=0  chnl=15
char id=9786 x=195   y=0     width=18    height=17    xoffset=0     yoffset=1     xadvance=18    page=0  chnl=15
char id=9829 x=89    y=19    width=16    height=16    xoffset=0     yoffset=0     xadvance=18    page=0  chnl=15
char id=9834 x=57    y=0     width=18    height=18    xoffset=0     yoffset=1     xadvance=18    page=0  chnl=15
char id=9836 x=114   y=0     width=18    height=18    xoffset=0     yoffset=1     xadvance=18    page=0  chnl=15
